^C:\USERS\11819743\SOURCE\REPOS\PROJECT3\PROJECT3\DEBUG\SOURCE.OBJ
C:\USERS\11819743\SOURCE\REPOS\PROJECT3\DEBUG\PROJECT3.EXE
C:\USERS\11819743\SOURCE\REPOS\PROJECT3\DEBUG\PROJECT3.ILK
C:\USERS\11819743\SOURCE\REPOS\PROJECT3\DEBUG\PROJECT3.PDB
